<svg class="rich-terminal" viewBox="0 0 1007 172.0" xmlns="http://www.w3.org/2000/svg">
    <!-- Generated with Rich https://www.textualize.io -->
    <style>

    @font-face {
        font-family: "Fira Code";
        src: local("FiraCode-Regular"),
                url("https://cdnjs.cloudflare.com/ajax/libs/firacode/6.2.0/woff2/FiraCode-Regular.woff2") format("woff2"),
                url("https://cdnjs.cloudflare.com/ajax/libs/firacode/6.2.0/woff/FiraCode-Regular.woff") format("woff");
        font-style: normal;
        font-weight: 400;
    }
    @font-face {
        font-family: "Fira Code";
        src: local("FiraCode-Bold"),
                url("https://cdnjs.cloudflare.com/ajax/libs/firacode/6.2.0/woff2/FiraCode-Bold.woff2") format("woff2"),
                url("https://cdnjs.cloudflare.com/ajax/libs/firacode/6.2.0/woff/FiraCode-Bold.woff") format("woff");
        font-style: bold;
        font-weight: 700;
    }

    .terminal-58040121-matrix {
        font-family: Fira Code, monospace;
        font-size: 20px;
        line-height: 24.4px;
        font-variant-east-asian: full-width;
    }

    .terminal-58040121-title {
        font-size: 18px;
        font-weight: bold;
        font-family: arial;
    }

    .terminal-58040121-r1 { fill: #c5c8c6 }
.terminal-58040121-r2 { fill: #d0b344 }
.terminal-58040121-r3 { fill: #d0b344;font-weight: bold }
    </style>

    <defs>
    <clipPath id="terminal-58040121-clip-terminal">
      <rect x="0" y="0" width="987.1999999999999" height="121.0" />
    </clipPath>
    <clipPath id="terminal-58040121-line-0">
    <rect x="0" y="1.5" width="988.2" height="24.65"/>
            </clipPath>
<clipPath id="terminal-58040121-line-1">
    <rect x="0" y="25.9" width="988.2" height="24.65"/>
            </clipPath>
<clipPath id="terminal-58040121-line-2">
    <rect x="0" y="50.3" width="988.2" height="24.65"/>
            </clipPath>
<clipPath id="terminal-58040121-line-3">
    <rect x="0" y="74.7" width="988.2" height="24.65"/>
            </clipPath>
    </defs>

    <rect fill="#292929" stroke="rgba(255,255,255,0.35)" stroke-width="1" x="1" y="1" width="1005" height="170" rx="8"/>
            <g transform="translate(26,22)">
            <circle cx="0" cy="0" r="7" fill="#ff5f57"/>
            <circle cx="22" cy="0" r="7" fill="#febc2e"/>
            <circle cx="44" cy="0" r="7" fill="#28c840"/>
            </g>
        
    <g transform="translate(9, 41)" clip-path="url(#terminal-58040121-clip-terminal)">
    
    <g class="terminal-58040121-matrix">
    <text class="terminal-58040121-r1" x="0" y="20" textLength="573.4" clip-path="url(#terminal-58040121-line-0)">$&#160;echo&#160;&quot;Warning&#160;Message&quot;&#160;|&#160;rich-chime&#160;--warning</text><text class="terminal-58040121-r1" x="988.2" y="20" textLength="12.2" clip-path="url(#terminal-58040121-line-0)">
</text><text class="terminal-58040121-r2" x="0" y="44.4" textLength="24.4" clip-path="url(#terminal-58040121-line-1)">╭─</text><text class="terminal-58040121-r3" x="48.8" y="44.4" textLength="146.4" clip-path="url(#terminal-58040121-line-1)">⚠️&#160;-&#160;WARNING</text><text class="terminal-58040121-r2" x="207.4" y="44.4" textLength="744.2" clip-path="url(#terminal-58040121-line-1)">─────────────────────────────────────────────────────────────</text><text class="terminal-58040121-r2" x="951.6" y="44.4" textLength="24.4" clip-path="url(#terminal-58040121-line-1)">─╮</text><text class="terminal-58040121-r1" x="988.2" y="44.4" textLength="12.2" clip-path="url(#terminal-58040121-line-1)">
</text><text class="terminal-58040121-r2" x="0" y="68.8" textLength="12.2" clip-path="url(#terminal-58040121-line-2)">│</text><text class="terminal-58040121-r1" x="12.2" y="68.8" textLength="951.6" clip-path="url(#terminal-58040121-line-2)">&#160;Warning&#160;Message&#160;&#160;&#160;&#160;&#160;&#160;&#160;&#160;&#160;&#160;&#160;&#160;&#160;&#160;&#160;&#160;&#160;&#160;&#160;&#160;&#160;&#160;&#160;&#160;&#160;&#160;&#160;&#160;&#160;&#160;&#160;&#160;&#160;&#160;&#160;&#160;&#160;&#160;&#160;&#160;&#160;&#160;&#160;&#160;&#160;&#160;&#160;&#160;&#160;&#160;&#160;&#160;&#160;&#160;&#160;&#160;&#160;&#160;&#160;&#160;&#160;&#160;</text><text class="terminal-58040121-r2" x="963.8" y="68.8" textLength="12.2" clip-path="url(#terminal-58040121-line-2)">│</text><text class="terminal-58040121-r1" x="988.2" y="68.8" textLength="12.2" clip-path="url(#terminal-58040121-line-2)">
</text><text class="terminal-58040121-r2" x="0" y="93.2" textLength="12.2" clip-path="url(#terminal-58040121-line-3)">│</text><text class="terminal-58040121-r2" x="963.8" y="93.2" textLength="12.2" clip-path="url(#terminal-58040121-line-3)">│</text><text class="terminal-58040121-r1" x="988.2" y="93.2" textLength="12.2" clip-path="url(#terminal-58040121-line-3)">
</text><text class="terminal-58040121-r2" x="0" y="117.6" textLength="24.4" clip-path="url(#terminal-58040121-line-4)">╰─</text><text class="terminal-58040121-r2" x="24.4" y="117.6" textLength="671" clip-path="url(#terminal-58040121-line-4)">───────────────────────────────────────────────────────</text><text class="terminal-58040121-r2" x="695.4" y="117.6" textLength="256.2" clip-path="url(#terminal-58040121-line-4)">&#160;2023-10-02&#160;19:55:14&#160;</text><text class="terminal-58040121-r2" x="951.6" y="117.6" textLength="24.4" clip-path="url(#terminal-58040121-line-4)">─╯</text><text class="terminal-58040121-r1" x="988.2" y="117.6" textLength="12.2" clip-path="url(#terminal-58040121-line-4)">
</text>
    </g>
    </g>
</svg>
